{"page":1,"total_results":4064,"total_pages":204,"results":[{"popularity":36.306,"vote_count":5464,"video":false,"poster_path":"\/plcZXvI310FkbwIptvd6rqk63LP.jpg","id":10144,"adult":false,"backdrop_path":"\/4w2uPtIo0lFSnQnWg0zVAqPJCLP.jpg","original_language":"en","original_title":"The Little Mermaid","genre_ids":[16,14,10751],"title":"The Little Mermaid","vote_average":7.3,"overview":"This colorful adventure tells the story of an impetuous mermaid princess named Ariel who falls in love with the very human Prince Eric and puts everything on the line for the chance to be with him. Memorable songs and characters -- including the villainous sea witch Ursula.","release_date":"1989-11-17"},{"popularity":34.294,"vote_count":5028,"video":false,"poster_path":"\/lH3dsbxA4wLalWKNYpVldX8zfPP.jpg","id":268,"adult":false,"backdrop_path":"\/2va32apQP97gvUxaMnL5wYt4CRB.jpg","original_language":"en","original_title":"Batman","genre_ids":[28,14],"title":"Batman","vote_average":7.2,"overview":"Having witnessed his parents' brutal murder as a child, millionaire philanthropist Bruce Wayne fights crime in Gotham City disguised as Batman, a costumed hero who strikes fear into the hearts of villains. But when a deformed madman who calls himself \"The Joker\" seizes control of Gotham's criminal underworld, Batman must face his most ruthless nemesis ever while protecting both his identity and his love interest, reporter Vicki Vale.","release_date":"1989-06-23"},{"popularity":28.816,"id":8913,"video":false,"vote_count":1278,"vote_average":6.6,"title":"Pet Sematary","release_date":"1989-04-21","original_language":"en","original_title":"Pet Sematary","genre_ids":[27],"backdrop_path":"\/4FeDjMFRs1mGAypRXYjBsYPV51F.jpg","adult":false,"overview":"Dr. Louis Creed's family moves into the country house of their dreams and discover a pet cemetery at the back of their property. The cursed burial ground deep in the woods brings the dead back to life -- with \"minor\" problems. At first, only the family's cat makes the return trip, but an accident forces a heartbroken father to contemplate the unthinkable.","poster_path":"\/8ZtH1V4rhrtP53ezlEWrCaMALXF.jpg"},{"popularity":27.096,"id":2978,"video":false,"vote_count":2710,"vote_average":6.4,"title":"Ghostbusters II","release_date":"1989-06-16","original_language":"en","original_title":"Ghostbusters II","genre_ids":[35,14],"backdrop_path":"\/Ae4j8Y6EnjtPJxnIVmLMzcARZ7T.jpg","adult":false,"overview":"Five years after they defeated Gozer, the Ghostbusters are out of business. When Dana begins to have ghost problems again, the boys come out of retirement to aid her and hopefully save New York City from a new paranormal threat.","poster_path":"\/yObYPMA58DnTMvJooFW7GG6jWAt.jpg"},{"popularity":26.106,"id":942,"video":false,"vote_count":2207,"vote_average":6.9,"title":"Lethal Weapon 2","release_date":"1989-07-07","original_language":"en","original_title":"Lethal Weapon 2","genre_ids":[28,12,35,80,53],"backdrop_path":"\/sb7H2SSUKA8Wk441HIHTQXsoy2e.jpg","adult":false,"overview":"In the opening chase, Martin Riggs and Roger Murtaugh stumble across a trunk full of Krugerrands. They follow the trail to a South African diplomat who's using his immunity to conceal a smuggling operation. When he plants a bomb under Murtaugh's toilet, the action explodes!","poster_path":"\/4fAIXbbEe1YpcJYuOBEFTa0JiGP.jpg"},{"popularity":24.464,"id":11361,"video":false,"vote_count":619,"vote_average":5.3,"title":"Halloween 5: The Revenge of Michael Myers","release_date":"1989-10-12","original_language":"en","original_title":"Halloween 5: The Revenge of Michael Myers","genre_ids":[27,53],"backdrop_path":"\/eGO3f5DPO52BbzBdHNYfRdi4Mb9.jpg","adult":false,"overview":"Presumed dead after a shoot-out with the Haddonfield police, Michael Myers is secretly nursed back to health -- and returns a year later to kill again and once more targets his young niece, Jamie. Jamie is now recovering in the local children's hospital after attacking her stepmother and losing her voice. Her mental link with her evil uncle may be the key to uprooting her family tree.","poster_path":"\/sfBjw1TPwoN7p7bdRO9sgUQpt1q.jpg"},{"popularity":24.212,"id":165,"video":false,"vote_count":8839,"vote_average":7.7,"title":"Back to the Future Part II","release_date":"1989-11-22","original_language":"en","original_title":"Back to the Future Part II","genre_ids":[12,35,10751,878],"backdrop_path":"\/skQN2UMQKQnOTmwplcYMx6ZF4jS.jpg","adult":false,"overview":"Marty and Doc are at it again in this wacky sequel to the 1985 blockbuster as the time-traveling duo head to 2015 to nip some McFly family woes in the bud. But things go awry thanks to bully Biff Tannen and a pesky sports almanac. In a last-ditch attempt to set things straight, Marty finds himself bound for 1955 and face to face with his teenage parents -- again.","poster_path":"\/hQq8xZe5uLjFzSBt4LanNP7SQjl.jpg"},{"popularity":23.977,"id":16859,"video":false,"vote_count":2288,"vote_average":7.8,"title":"Kiki's Delivery Service","release_date":"1989-07-29","original_language":"ja","original_title":"魔女の宅急便","genre_ids":[16,12,18,14,10751],"backdrop_path":"\/h5pAEVma835u8xoE60kmLVopLct.jpg","adult":false,"overview":"A young witch, on her mandatory year of independent life, finds fitting into a new community difficult while she supports herself by running an air courier service.","poster_path":"\/7nO5DUMnGUuXrA4r2h6ESOKQRrx.jpg"},{"popularity":22.816,"vote_count":872,"video":false,"poster_path":"\/lVZ3r0iDwGejlCvFEvXGzhQB9ds.jpg","id":10495,"adult":false,"backdrop_path":"\/9SPZml4PryC3Rz9EsLhrokcwoLR.jpg","original_language":"en","original_title":"The Karate Kid Part III","genre_ids":[28,12,18,10751],"title":"The Karate Kid Part III","vote_average":5.8,"overview":"Kreese, his life in tatters after his karate school was defeated by Daniel and Mr. Miyagi, visits Terry, a friend from Vietnam. Terry is a ruthless business man and a martial arts expert, and he vows to help Kreese take revenge on Daniel and Mr. Miyagi.","release_date":"1989-06-29"},{"popularity":21.974,"vote_count":553,"video":false,"poster_path":"\/s5U5JgPpgfTnbGxQF2bOlfqqz5b.jpg","id":10283,"adult":false,"backdrop_path":"\/wso012gKziMLR6J2LlYEO74tzy9.jpg","original_language":"en","original_title":"Friday the 13th Part VIII: Jason Takes Manhattan","genre_ids":[27,53],"title":"Friday the 13th Part VIII: Jason Takes Manhattan","vote_average":4.9,"overview":"A group of students on a graduation cruise bound for Manhattan soon realize they've got a stowaway aboard the ship: serial killer Jason Voorhees.","release_date":"1989-07-28"},{"popularity":21.788,"vote_count":92,"video":false,"poster_path":"\/ztnaaBao1ctl0xu6uphmANBI7ef.jpg","id":83088,"adult":false,"backdrop_path":"\/2QbyWDvb6GylplTD77rNAZNepaU.jpg","original_language":"ja","original_title":"聖闘士星矢 最終聖戦の戦士たち","genre_ids":[28,16,14],"title":"Saint Seiya: Warriors of the Final Holy Battle","vote_average":7,"overview":"The plot involves the coming of Lucifer to the Sanctuary, where his underlings systematically dispose of the surviving Gold Saints. Athena goes to Lucifer to ask for peace, placing herself in peril. The Bronze Saints must then come to her rescue, destroying Lucifer's Fallen Angels (Seima Tenshi in Japanese) in the process.","release_date":"1989-03-18"},{"popularity":21.529,"id":89,"video":false,"vote_count":6739,"vote_average":7.8,"title":"Indiana Jones and the Last Crusade","release_date":"1989-05-24","original_language":"en","original_title":"Indiana Jones and the Last Crusade","genre_ids":[12,28],"backdrop_path":"\/diTtDL61hIwozEGBwEsw7uA7qN9.jpg","adult":false,"overview":"When Dr. Henry Jones Sr. suddenly goes missing while pursuing the Holy Grail, eminent archaeologist Indiana must team up with Marcus Brody, Sallah and Elsa Schneider to follow in his father's footsteps and stop the Nazis from recovering the power of eternal life.","poster_path":"\/sizg1AU8f8JDZX4QIgE4pjUMBvx.jpg"},{"popularity":21.382,"vote_count":1067,"video":false,"poster_path":"\/qcLGk8CkZW4rHK1kqD9Jdst5vd8.jpg","id":1648,"adult":false,"backdrop_path":"\/ynYdEr7WskeM9dy6oNAQUGldAtE.jpg","original_language":"en","original_title":"Bill & Ted's Excellent Adventure","genre_ids":[12,35,878],"title":"Bill & Ted's Excellent Adventure","vote_average":6.9,"overview":"Bill and Ted are high school buddies starting a band. They are also about to fail their history class—which means Ted would be sent to military school—but receive help from Rufus, a traveller from a future where their band is the foundation for a perfect society. With the use of Rufus' time machine, Bill and Ted travel to various points in history, returning with important figures to help them complete their final history presentation.","release_date":"1989-02-17"},{"popularity":20.827,"vote_count":1171,"video":false,"poster_path":"\/6NIOOBHp59uEcyHVG0Du6TumOpY.jpg","id":709,"adult":false,"backdrop_path":"\/p6VFbg5lhWj0RCgXf5dj6IDMPvt.jpg","original_language":"en","original_title":"Licence to Kill","genre_ids":[28,12,53],"title":"Licence to Kill","vote_average":6.2,"overview":"When drug lord Franz Sanchez exacts his brutal vengeance on Bond's friend Felix Leiter, 007 resigns from the British Secret Service and begins a fierce vendetta against the master criminal. Bond won't be satisfied until Sanchez is defeated, and to accomplish this aim he allies himself with a beautiful pilot and Sanchez's sexy girlfriend.","release_date":"1989-07-07"},{"popularity":20.125,"vote_count":7426,"video":false,"poster_path":"\/ai40gM7SUaGA6fthvsd87o8IQq4.jpg","id":207,"adult":false,"backdrop_path":"\/tJRToZBfb52NhF6SMGAe0bWQc6z.jpg","original_language":"en","original_title":"Dead Poets Society","genre_ids":[18],"title":"Dead Poets Society","vote_average":8.3,"overview":"At an elite, old-fashioned boarding school in New England, a passionate English teacher inspires his students to rebel against convention and seize the potential of every day, courting the disdain of the stern headmaster.","release_date":"1989-06-02"},{"popularity":19.832,"vote_count":1747,"video":false,"poster_path":"\/jel2BuDv7Bq4fuv2pUrTfiBm69o.jpg","id":2756,"adult":false,"backdrop_path":"\/aPB3jFuMSoNFk2uDZ5tX5CIGaSX.jpg","original_language":"en","original_title":"The Abyss","genre_ids":[28,12,878,53],"title":"The Abyss","vote_average":7.3,"overview":"A civilian oil rig crew is recruited to conduct a search and rescue effort when a nuclear submarine mysteriously sinks. One diver soon finds himself on a spectacular odyssey 25,000 feet below the ocean's surface where he confronts a mysterious force that has the power to change the world or destroy it.","release_date":"1989-08-09"},{"popularity":18.956,"id":10160,"video":false,"vote_count":708,"vote_average":5.4,"title":"A Nightmare on Elm Street: The Dream Child","release_date":"1989-08-11","original_language":"en","original_title":"A Nightmare on Elm Street: The Dream Child","genre_ids":[27,53],"backdrop_path":"\/vHgIvVAwo9rvmLzcCzecv76iz8L.jpg","adult":false,"overview":"Alice, having survived the previous installment of the Nightmare series, finds the deadly dreams of Freddy Krueger starting once again. This time, the taunting murderer is striking through the sleeping mind of Alice's unborn child. His intention is to be \"born again\" into the real world. The only one who can stop Freddy is his dead mother, but can Alice free her spirit in time to save her own son?","poster_path":"\/kizvpgXQfrAgN8FhOd87LbKk6kO.jpg"},{"popularity":18.33,"id":10493,"video":false,"vote_count":409,"vote_average":6.6,"title":"Dead Calm","release_date":"1989-04-07","original_language":"en","original_title":"Dead Calm","genre_ids":[53,27],"backdrop_path":"\/yYr8a33NVcwex8T53wxtDJiKQ5r.jpg","adult":false,"overview":"An Australian couple take a sailing trip in the Pacific to forget about a terrible accident. While on the open sea, in dead calm weather conditions, they come across a ship with one survivor who is not at all what he seems.","poster_path":"\/kSC0I6EZXGH6Vm7skkvdQ5Nfsuk.jpg"},{"popularity":17.91,"vote_count":1386,"video":false,"poster_path":"\/dm2KpvwzfyPduUK1yBATxPveSgd.jpg","id":5825,"adult":false,"backdrop_path":"\/pPrR1LEg9IxtKVXfHFoCDRAsG0p.jpg","original_language":"en","original_title":"National Lampoon's Christmas Vacation","genre_ids":[35],"title":"National Lampoon's Christmas Vacation","vote_average":7.2,"overview":"It's Christmas time and the Griswolds are preparing for a family seasonal celebration, but things never run smoothly for Clark, his wife Ellen and their two kids. Clark's continual bad luck is worsened by his obnoxious family guests, but he manages to keep going knowing that his Christmas bonus is due soon.","release_date":"1989-11-30"},{"popularity":17.818,"id":12150,"video":false,"vote_count":346,"vote_average":6.6,"title":"Sea of Love","release_date":"1989-09-15","original_language":"en","original_title":"Sea of Love","genre_ids":[18,80,9648,10749,53],"backdrop_path":"\/f2BSeNo3erIc9m8m4cjHBWRB7Te.jpg","adult":false,"overview":"Seen-it-all New York detective Frank Keller is unsettled - he has done twenty years on the force and could retire, and he hasn't come to terms with his wife leaving him for a colleague. Joining up with an officer from another part of town to investigate a series of murders linked by the lonely hearts columns he finds he is getting seriously and possibly dangerously involved with Helen, one of the main suspects.","poster_path":"\/7DkkTHIX3hUqvsRv5sDmJAkCfKK.jpg"}]}